[
  {
    "Id": 1,
    "Text": "Salut !",
    "LinkPicture": null,
    "ReceivedAt": "",
    "SendAt": "",
    "SendByUser": 1,
    "AddedDate": "",
    "Conversation": 1,
    "ViewAt": null
  },
  {
    "Id": 2,
    "Text": "Salut ?",
    "LinkPicture": null,
    "ReceivedAt": "",
    "SendAt": "",
    "SendByUser": 2,
    "AddedDate": "",
    "Conversation": 1,
    "ViewAt": null
  },
  {
    "Id": 3,
    "Text": "re salut.",
    "LinkPicture": null,
    "ReceivedAt": "",
    "SendAt": "",
    "SendByUser": 1,
    "AddedDate": "",
    "Conversation": 1,
    "ViewAt": null
  }
]