[
  {
    "Id": 1,
    "Title": "Super Yoshi Sunshine",
    "Ratin": 20,
    "AddedAt" : "2021-04-11",
    "Genders" : null
  },
  {
    "Id": 2,
    "Title": "PokeDigi : Salt version",
    "Ratin": 12,
    "AddedAt" : "2021-04-11",
    "Genders" : null
  }
]